powerscrape
…
energyStor <- AESOsimpleTable(14, "energy storage")

aesoDashSource %>% 
  html_elements(css = "table") %>% 
  .[15] %>% 
  html_table() %>% 
  .[[1]] 

# A tibble: 44 × 4
   SOLAR                 SOLAR SOLAR SOLAR
   <chr>                 <chr> <chr> <chr>
 1 ASSET                 MC    TNG   DCR  
 2 BRD1 Burdett (BRD1)   11    0     0    
 3 BUR1 Burdett (BUR1)   20    0     0    
 4 Barlow Solar (BLS1)   27    0     0    
 5 Brooks Solar (BSC1)   15    0     0    
 6 Brooks Solar 1 (BRK1) 13    0     0    
 7 Brooks Solar 2 (BRK2) 14    0     0    
 8 COL1 Coaldale (COL1)^ 23    0     0    
 9 Chappice Lake (CHP1)  14    0     0    
10 Claresholm 1 (CLR1)   58    0     0    
# ℹ 34 more rows

solar <- AESOsimpleTable(15, "solar")

aesoDashSource %>% 
  html_elements(css = "table") %>% 
  .[16] %>% 
  html_table() %>% 
  .[[1]] 

# A tibble: 46 × 4
   WIND                      WIND  WIND  WIND 
   <chr>                     <chr> <chr> <chr>
 1 ASSET                     MC    TNG   DCR  
 2 Ardenville Wind (ARD1)*   68    1     0    
 3 BUL1 Bull Creek (BUL1)*   13    6     0    
 4 BUL2 Bull Creek (BUL2)*   16    6     0    
 5 Blackspring Ridge (BSR1)* 300   20    0    
 6 Blue Trail Wind (BTR1)*   66    0     0    
 7 Buffalo Atlee 1 (BFL1)*   18    1     0    
 8 Buffalo Atlee 2 (BFL2)*   16    1     0    
 9 Buffalo Atlee 3 (BFL3)*   18    0     0    
10 Buffalo Atlee 4 (BFL4)*   10    1     0    
# ℹ 36 more rows
…
